^C:\USERS\NWELC\SOURCE\REPOS\TE.LABEXERCISE2\TE.LABEXERCISE2\MAIN.CPP
C:\USERS\NWELC\SOURCE\REPOS\TE.LABEXERCISE2\TE.LABEXERCISE2\DEBUG\VC142.PDB
C:\USERS\NWELC\SOURCE\REPOS\TE.LABEXERCISE2\TE.LABEXERCISE2\DEBUG\VC142.IDB
C:\USERS\NWELC\SOURCE\REPOS\TE.LABEXERCISE2\TE.LABEXERCISE2\DEBUG\MAIN.OBJ
