^C:\USERS\200067897\SOURCE\REPOS\TE.LABEXERCISE2\TE.LABEXERCISE2\DEBUG\MAIN.OBJ
/OUT:"C:\USERS\200067897\SOURCE\REPOS\TE.LABEXERCISE2\DEBUG\TE.LABEXERCISE2.EXE" /INCREMENTAL /NOLOGO KERNEL32.LIB USER32.LIB GDI32.LIB WINSPOOL.LIB COMDLG32.LIB ADVAPI32.LIB SHELL32.LIB OLE32.LIB OLEAUT32.LIB UUID.LIB ODBC32.LIB ODBCCP32.LIB /MANIFEST /MANIFESTUAC:"level='asInvoker' uiAccess='false'" /manifest:embed /DEBUG:FASTLINK /PDB:"C:\USERS\200067897\SOURCE\REPOS\TE.LABEXERCISE2\DEBUG\TE.LABEXERCISE2.PDB" /TLBID:1 /DYNAMICBASE /NXCOMPAT /IMPLIB:"C:\USERS\200067897\SOURCE\REPOS\TE.LABEXERCISE2\DEBUG\TE.LABEXERCISE2.LIB" /MACHINE:X86 DEBUG\MAIN.OBJ
^C:\USERS\NWELC\SOURCE\REPOS\TE.LABEXERCISE2\TE.LABEXERCISE2\DEBUG\MAIN.OBJ
/OUT:"C:\USERS\NWELC\SOURCE\REPOS\TE.LABEXERCISE2\DEBUG\TE.LABEXERCISE2.EXE" /INCREMENTAL /NOLOGO KERNEL32.LIB USER32.LIB GDI32.LIB WINSPOOL.LIB COMDLG32.LIB ADVAPI32.LIB SHELL32.LIB OLE32.LIB OLEAUT32.LIB UUID.LIB ODBC32.LIB ODBCCP32.LIB /MANIFEST /MANIFESTUAC:"level='asInvoker' uiAccess='false'" /manifest:embed /DEBUG:FASTLINK /PDB:"C:\USERS\NWELC\SOURCE\REPOS\TE.LABEXERCISE2\DEBUG\TE.LABEXERCISE2.PDB" /TLBID:1 /DYNAMICBASE /NXCOMPAT /IMPLIB:"C:\USERS\NWELC\SOURCE\REPOS\TE.LABEXERCISE2\DEBUG\TE.LABEXERCISE2.LIB" /MACHINE:X86 DEBUG\MAIN.OBJ
